%YAML 1.1
%TAG !u! tag:unity3d.com,2011:
--- !u!29 &1
OcclusionCullingSettings:
  m_ObjectHideFlags: 0
  serializedVersion: 2
  m_OcclusionBakeSettings:
    smallestOccluder: 5
    smallestHole: 0.25
    backfaceThreshold: 100
  m_SceneGUID: 00000000000000000000000000000000
  m_OcclusionCullingData: {fileID: 0}
--- !u!104 &2
RenderSettings:
  m_ObjectHideFlags: 0
  serializedVersion: 9
  m_Fog: 0
  m_FogColor: {r: 0.5, g: 0.5, b: 0.5, a: 1}
  m_FogMode: 3
  m_FogDensity: 0.01
  m_LinearFogStart: 0
  m_LinearFogEnd: 300
  m_AmbientSkyColor: {r: 0.212, g: 0.227, b: 0.259, a: 1}
  m_AmbientEquatorColor: {r: 0.114, g: 0.125, b: 0.133, a: 1}
  m_AmbientGroundColor: {r: 0.047, g: 0.043, b: 0.035, a: 1}
  m_AmbientIntensity: 1
  m_AmbientMode: 0
  m_SubtractiveShadowColor: {r: 0.42, g: 0.478, b: 0.627, a: 1}
  m_SkyboxMaterial: {fileID: 10304, guid: 0000000000000000f000000000000000, type: 0}
  m_HaloStrength: 0.5
  m_FlareStrength: 1
  m_FlareFadeSpeed: 3
  m_HaloTexture: {fileID: 0}
  m_SpotCookie: {fileID: 10001, guid: 0000000000000000e000000000000000, type: 0}
  m_DefaultReflectionMode: 0
  m_DefaultReflectionResolution: 128
  m_ReflectionBounces: 1
  m_ReflectionIntensity: 1
  m_CustomReflection: {fileID: 0}
  m_Sun: {fileID: 0}
  m_IndirectSpecularColor: {r: 0.44657844, g: 0.49641222, b: 0.57481694, a: 1}
  m_UseRadianceAmbientProbe: 0
--- !u!157 &3
LightmapSettings:
  m_ObjectHideFlags: 0
  serializedVersion: 11
  m_GIWorkflowMode: 0
  m_GISettings:
    serializedVersion: 2
    m_BounceScale: 1
    m_IndirectOutputScale: 1
    m_AlbedoBoost: 1
    m_EnvironmentLightingMode: 0
    m_EnableBakedLightmaps: 1
    m_EnableRealtimeLightmaps: 1
  m_LightmapEditorSettings:
    serializedVersion: 10
    m_Resolution: 2
    m_BakeResolution: 40
    m_AtlasSize: 1024
    m_AO: 0
    m_AOMaxDistance: 1
    m_CompAOExponent: 1
    m_CompAOExponentDirect: 0
    m_Padding: 2
    m_LightmapParameters: {fileID: 0}
    m_LightmapsBakeMode: 1
    m_TextureCompression: 1
    m_FinalGather: 0
    m_FinalGatherFiltering: 1
    m_FinalGatherRayCount: 256
    m_ReflectionCompression: 2
    m_MixedBakeMode: 2
    m_BakeBackend: 1
    m_PVRSampling: 1
    m_PVRDirectSampleCount: 32
    m_PVRSampleCount: 500
    m_PVRBounces: 2
    m_PVRFilterTypeDirect: 0
    m_PVRFilterTypeIndirect: 0
    m_PVRFilterTypeAO: 0
    m_PVRFilteringMode: 1
    m_PVRCulling: 1
    m_PVRFilteringGaussRadiusDirect: 1
    m_PVRFilteringGaussRadiusIndirect: 5
    m_PVRFilteringGaussRadiusAO: 2
    m_PVRFilteringAtrousPositionSigmaDirect: 0.5
    m_PVRFilteringAtrousPositionSigmaIndirect: 2
    m_PVRFilteringAtrousPositionSigmaAO: 1
    m_ShowResolutionOverlay: 1
  m_LightingDataAsset: {fileID: 0}
  m_UseShadowmask: 1
--- !u!196 &4
NavMeshSettings:
  serializedVersion: 2
  m_ObjectHideFlags: 0
  m_BuildSettings:
    serializedVersion: 2
    agentTypeID: 0
    agentRadius: 0.5
    agentHeight: 2
    agentSlope: 45
    agentClimb: 0.4
    ledgeDropHeight: 0
    maxJumpAcrossDistance: 0
    minRegionArea: 2
    manualCellSize: 0
    cellSize: 0.16666667
    manualTileSize: 0
    tileSize: 256
    accuratePlacement: 0
    debug:
      m_Flags: 0
  m_NavMeshData: {fileID: 23800000, guid: 160497c3824e4f246a1610db052fe3d9, type: 2}
--- !u!1001 &140971597
PrefabInstance:
  m_ObjectHideFlags: 0
  serializedVersion: 2
  m_Modification:
    m_TransformParent: {fileID: 0}
    m_Modifications:
    - target: {fileID: 1940373893983544, guid: 07dbe512ae874da4ab13aa6f19f358d2, type: 3}
      propertyPath: m_Name
      value: Player
      objectReference: {fileID: 0}
    - target: {fileID: 4374478225313172, guid: 07dbe512ae874da4ab13aa6f19f358d2, type: 3}
      propertyPath: m_LocalPosition.x
      value: 2.1154673
      objectReference: {fileID: 0}
    - target: {fileID: 4374478225313172, guid: 07dbe512ae874da4ab13aa6f19f358d2, type: 3}
      propertyPath: m_LocalPosition.y
      value: 1
      objectReference: {fileID: 0}
    - target: {fileID: 4374478225313172, guid: 07dbe512ae874da4ab13aa6f19f358d2, type: 3}
      propertyPath: m_LocalPosition.z
      value: 0.86
      objectReference: {fileID: 0}
    - target: {fileID: 4374478225313172, guid: 07dbe512ae874da4ab13aa6f19f358d2, type: 3}
      propertyPath: m_LocalRotation.x
      value: 0
      objectReference: {fileID: 0}
    - target: {fileID: 4374478225313172, guid: 07dbe512ae874da4ab13aa6f19f358d2, type: 3}
      propertyPath: m_LocalRotation.y
      value: 0
      objectReference: {fileID: 0}
    - target: {fileID: 4374478225313172, guid: 07dbe512ae874da4ab13aa6f19f358d2, type: 3}
      propertyPath: m_LocalRotation.z
      value: 0
      objectReference: {fileID: 0}
    - target: {fileID: 4374478225313172, guid: 07dbe512ae874da4ab13aa6f19f358d2, type: 3}
      propertyPath: m_LocalRotation.w
      value: 1
      objectReference: {fileID: 0}
    - target: {fileID: 4374478225313172, guid: 07dbe512ae874da4ab13aa6f19f358d2, type: 3}
      propertyPath: m_RootOrder
      value: 6
      objectReference: {fileID: 0}
    - target: {fileID: 4374478225313172, guid: 07dbe512ae874da4ab13aa6f19f358d2, type: 3}
      propertyPath: m_LocalEulerAnglesHint.x
      value: 0
      objectReference: {fileID: 0}
    - target: {fileID: 4374478225313172, guid: 07dbe512ae874da4ab13aa6f19f358d2, type: 3}
      propertyPath: m_LocalEulerAnglesHint.y
      value: 0
      objectReference: {fileID: 0}
    - target: {fileID: 4374478225313172, guid: 07dbe512ae874da4ab13aa6f19f358d2, type: 3}
      propertyPath: m_LocalEulerAnglesHint.z
      value: 0
      objectReference: {fileID: 0}
    - target: {fileID: 1430102760243645491, guid: 07dbe512ae874da4ab13aa6f19f358d2,
        type: 3}
      propertyPath: cam
      value: 
      objectReference: {fileID: 1055341915}
    m_RemovedComponents: []
  m_SourcePrefab: {fileID: 100100000, guid: 07dbe512ae874da4ab13aa6f19f358d2, type: 3}
--- !u!1001 &233235090
PrefabInstance:
  m_ObjectHideFlags: 0
  serializedVersion: 2
  m_Modification:
    m_TransformParent: {fileID: 0}
    m_Modifications:
    - target: {fileID: 5781460161868182989, guid: 57b027e063686e44b86c770d99dad0e5,
        type: 3}
      propertyPath: m_Name
      value: Ston
      objectReference: {fileID: 0}
    - target: {fileID: 5781460161868182985, guid: 57b027e063686e44b86c770d99dad0e5,
        type: 3}
      propertyPath: m_LocalPosition.x
      value: -1.5900196
      objectReference: {fileID: 0}
    - target: {fileID: 5781460161868182985, guid: 57b027e063686e44b86c770d99dad0e5,
        type: 3}
      propertyPath: m_LocalPosition.y
      value: 1
      objectReference: {fileID: 0}
    - target: {fileID: 5781460161868182985, guid: 57b027e063686e44b86c770d99dad0e5,
        type: 3}
      propertyPath: m_LocalPosition.z
      value: -3.4207196
      objectReference: {fileID: 0}
    - target: {fileID: 5781460161868182985, guid: 57b027e063686e44b86c770d99dad0e5,
        type: 3}
      propertyPath: m_LocalRotation.x
      value: 0
      objectReference: {fileID: 0}
    - target: {fileID: 5781460161868182985, guid: 57b027e063686e44b86c770d99dad0e5,
        type: 3}
      propertyPath: m_LocalRotation.y
      value: 0
      objectReference: {fileID: 0}
    - target: {fileID: 5781460161868182985, guid: 57b027e063686e44b86c770d99dad0e5,
        type: 3}
      propertyPath: m_LocalRotation.z
      value: 0
      objectReference: {fileID: 0}
    - target: {fileID: 5781460161868182985, guid: 57b027e063686e44b86c770d99dad0e5,
        type: 3}
      propertyPath: m_LocalRotation.w
      value: 1
      objectReference: {fileID: 0}
    - target: {fileID: 5781460161868182985, guid: 57b027e063686e44b86c770d99dad0e5,
        type: 3}
      propertyPath: m_RootOrder
      value: 2
      objectReference: {fileID: 0}
    - target: {fileID: 5781460161868182985, guid: 57b027e063686e44b86c770d99dad0e5,
        type: 3}
      propertyPath: m_LocalEulerAnglesHint.x
      value: 0
      objectReference: {fileID: 0}
    - target: {fileID: 5781460161868182985, guid: 57b027e063686e44b86c770d99dad0e5,
        type: 3}
      propertyPath: m_LocalEulerAnglesHint.y
      value: 0
      objectReference: {fileID: 0}
    - target: {fileID: 5781460161868182985, guid: 57b027e063686e44b86c770d99dad0e5,
        type: 3}
      propertyPath: m_LocalEulerAnglesHint.z
      value: 0
      objectReference: {fileID: 0}
    - target: {fileID: 5781460161868182986, guid: 57b027e063686e44b86c770d99dad0e5,
        type: 3}
      propertyPath: RM
      value: 
      objectReference: {fileID: 1121521765130237551}
    m_RemovedComponents: []
  m_SourcePrefab: {fileID: 100100000, guid: 57b027e063686e44b86c770d99dad0e5, type: 3}
--- !u!1 &341645069 stripped
GameObject:
  m_CorrespondingSourceObject: {fileID: 1940373893983544, guid: 07dbe512ae874da4ab13aa6f19f358d2,
    type: 3}
  m_PrefabInstance: {fileID: 140971597}
  m_PrefabAsset: {fileID: 0}
--- !u!1001 &849666388
PrefabInstance:
  m_ObjectHideFlags: 0
  serializedVersion: 2
  m_Modification:
    m_TransformParent: {fileID: 0}
    m_Modifications:
    - target: {fileID: 5781460161868182989, guid: 57b027e063686e44b86c770d99dad0e5,
        type: 3}
      propertyPath: m_Name
      value: Wood
      objectReference: {fileID: 0}
    - target: {fileID: 5781460161868182985, guid: 57b027e063686e44b86c770d99dad0e5,
        type: 3}
      propertyPath: m_LocalPosition.x
      value: -1.9711854
      objectReference: {fileID: 0}
    - target: {fileID: 5781460161868182985, guid: 57b027e063686e44b86c770d99dad0e5,
        type: 3}
      propertyPath: m_LocalPosition.y
      value: 1
      objectReference: {fileID: 0}
    - target: {fileID: 5781460161868182985, guid: 57b027e063686e44b86c770d99dad0e5,
        type: 3}
      propertyPath: m_LocalPosition.z
      value: -9.0931835
      objectReference: {fileID: 0}
    - target: {fileID: 5781460161868182985, guid: 57b027e063686e44b86c770d99dad0e5,
        type: 3}
      propertyPath: m_LocalRotation.x
      value: 0
      objectReference: {fileID: 0}
    - target: {fileID: 5781460161868182985, guid: 57b027e063686e44b86c770d99dad0e5,
        type: 3}
      propertyPath: m_LocalRotation.y
      value: 0
      objectReference: {fileID: 0}
    - target: {fileID: 5781460161868182985, guid: 57b027e063686e44b86c770d99dad0e5,
        type: 3}
      propertyPath: m_LocalRotation.z
      value: 0
      objectReference: {fileID: 0}
    - target: {fileID: 5781460161868182985, guid: 57b027e063686e44b86c770d99dad0e5,
        type: 3}
      propertyPath: m_LocalRotation.w
      value: 1
      objectReference: {fileID: 0}
    - target: {fileID: 5781460161868182985, guid: 57b027e063686e44b86c770d99dad0e5,
        type: 3}
      propertyPath: m_RootOrder
      value: 1
      objectReference: {fileID: 0}
    - target: {fileID: 5781460161868182985, guid: 57b027e063686e44b86c770d99dad0e5,
        type: 3}
      propertyPath: m_LocalEulerAnglesHint.x
      value: 0
      objectReference: {fileID: 0}
    - target: {fileID: 5781460161868182985, guid: 57b027e063686e44b86c770d99dad0e5,
        type: 3}
      propertyPath: m_LocalEulerAnglesHint.y
      value: 0
      objectReference: {fileID: 0}
    - target: {fileID: 5781460161868182985, guid: 57b027e063686e44b86c770d99dad0e5,
        type: 3}
      propertyPath: m_LocalEulerAnglesHint.z
      value: 0
      objectReference: {fileID: 0}
    - target: {fileID: 5781460161868182986, guid: 57b027e063686e44b86c770d99dad0e5,
        type: 3}
      propertyPath: RM
      value: 
      objectReference: {fileID: 1121521765130237551}
    - target: {fileID: 5781460161868182986, guid: 57b027e063686e44b86c770d99dad0e5,
        type: 3}
      propertyPath: nameOfResource
      value: 0
      objectReference: {fileID: 0}
    - target: {fileID: 5781460161868182984, guid: 57b027e063686e44b86c770d99dad0e5,
        type: 3}
      propertyPath: m_Mesh
      value: 
      objectReference: {fileID: 10206, guid: 0000000000000000e000000000000000, type: 0}
    - target: {fileID: 5781460161868182987, guid: 57b027e063686e44b86c770d99dad0e5,
        type: 3}
      propertyPath: m_Materials.Array.data[0]
      value: 
      objectReference: {fileID: 2100000, guid: c91aade1cfa7b304fa89c0d3303bb757, type: 2}
    m_RemovedComponents: []
  m_SourcePrefab: {fileID: 100100000, guid: 57b027e063686e44b86c770d99dad0e5, type: 3}
--- !u!20 &1055341915 stripped
Camera:
  m_CorrespondingSourceObject: {fileID: 5095837760039074744, guid: 4974254e8f094344e899cc9b65178dfa,
    type: 3}
  m_PrefabInstance: {fileID: 5095837760015664867}
  m_PrefabAsset: {fileID: 0}
--- !u!4 &1374062107 stripped
Transform:
  m_CorrespondingSourceObject: {fileID: 4374478225313172, guid: 07dbe512ae874da4ab13aa6f19f358d2,
    type: 3}
  m_PrefabInstance: {fileID: 140971597}
  m_PrefabAsset: {fileID: 0}
--- !u!1 &1530151619
GameObject:
  m_ObjectHideFlags: 0
  m_CorrespondingSourceObject: {fileID: 0}
  m_PrefabInstance: {fileID: 0}
  m_PrefabAsset: {fileID: 0}
  serializedVersion: 6
  m_Component:
  - component: {fileID: 1530151622}
  - component: {fileID: 1530151621}
  - component: {fileID: 1530151620}
  m_Layer: 0
  m_Name: EventSystem
  m_TagString: Untagged
  m_Icon: {fileID: 0}
  m_NavMeshLayer: 0
  m_StaticEditorFlags: 0
  m_IsActive: 1
--- !u!114 &1530151620
MonoBehaviour:
  m_ObjectHideFlags: 0
  m_CorrespondingSourceObject: {fileID: 0}
  m_PrefabInstance: {fileID: 0}
  m_PrefabAsset: {fileID: 0}
  m_GameObject: {fileID: 1530151619}
  m_Enabled: 1
  m_EditorHideFlags: 0
  m_Script: {fileID: 1077351063, guid: f70555f144d8491a825f0804e09c671c, type: 3}
  m_Name: 
  m_EditorClassIdentifier: 
  m_HorizontalAxis: Horizontal
  m_VerticalAxis: Vertical
  m_SubmitButton: Submit
  m_CancelButton: Cancel
  m_InputActionsPerSecond: 10
  m_RepeatDelay: 0.5
  m_ForceModuleActive: 0
--- !u!114 &1530151621
MonoBehaviour:
  m_ObjectHideFlags: 0
  m_CorrespondingSourceObject: {fileID: 0}
  m_PrefabInstance: {fileID: 0}
  m_PrefabAsset: {fileID: 0}
  m_GameObject: {fileID: 1530151619}
  m_Enabled: 1
  m_EditorHideFlags: 0
  m_Script: {fileID: -619905303, guid: f70555f144d8491a825f0804e09c671c, type: 3}
  m_Name: 
  m_EditorClassIdentifier: 
  m_FirstSelected: {fileID: 0}
  m_sendNavigationEvents: 1
  m_DragThreshold: 10
--- !u!4 &1530151622
Transform:
  m_ObjectHideFlags: 0
  m_CorrespondingSourceObject: {fileID: 0}
  m_PrefabInstance: {fileID: 0}
  m_PrefabAsset: {fileID: 0}
  m_GameObject: {fileID: 1530151619}
  m_LocalRotation: {x: 0, y: 0, z: 0, w: 1}
  m_LocalPosition: {x: 0, y: 0, z: 0}
  m_LocalScale: {x: 1, y: 1, z: 1}
  m_Children: []
  m_Father: {fileID: 0}
  m_RootOrder: 7
  m_LocalEulerAnglesHint: {x: 0, y: 0, z: 0}
--- !u!1 &1548450675
GameObject:
  m_ObjectHideFlags: 0
  m_CorrespondingSourceObject: {fileID: 0}
  m_PrefabInstance: {fileID: 0}
  m_PrefabAsset: {fileID: 0}
  serializedVersion: 6
  m_Component:
  - component: {fileID: 1548450677}
  - component: {fileID: 1548450676}
  m_Layer: 0
  m_Name: Directional Light
  m_TagString: Untagged
  m_Icon: {fileID: 0}
  m_NavMeshLayer: 0
  m_StaticEditorFlags: 0
  m_IsActive: 1
--- !u!108 &1548450676
Light:
  m_ObjectHideFlags: 0
  m_CorrespondingSourceObject: {fileID: 0}
  m_PrefabInstance: {fileID: 0}
  m_PrefabAsset: {fileID: 0}
  m_GameObject: {fileID: 1548450675}
  m_Enabled: 1
  serializedVersion: 8
  m_Type: 1
  m_Color: {r: 1, g: 0.95686275, b: 0.8392157, a: 1}
  m_Intensity: 1
  m_Range: 10
  m_SpotAngle: 30
  m_CookieSize: 10
  m_Shadows:
    m_Type: 2
    m_Resolution: -1
    m_CustomResolution: -1
    m_Strength: 1
    m_Bias: 0.05
    m_NormalBias: 0.4
    m_NearPlane: 0.2
  m_Cookie: {fileID: 0}
  m_DrawHalo: 0
  m_Flare: {fileID: 0}
  m_RenderMode: 0
  m_CullingMask:
    serializedVersion: 2
    m_Bits: 4294967295
  m_Lightmapping: 4
  m_LightShadowCasterMode: 0
  m_AreaSize: {x: 1, y: 1}
  m_BounceIntensity: 1
  m_ColorTemperature: 6570
  m_UseColorTemperature: 0
  m_ShadowRadius: 0
  m_ShadowAngle: 0
--- !u!4 &1548450677
Transform:
  m_ObjectHideFlags: 0
  m_CorrespondingSourceObject: {fileID: 0}
  m_PrefabInstance: {fileID: 0}
  m_PrefabAsset: {fileID: 0}
  m_GameObject: {fileID: 1548450675}
  m_LocalRotation: {x: 0.40821788, y: -0.23456968, z: 0.10938163, w: 0.8754261}
  m_LocalPosition: {x: 0, y: 23.15, z: 0}
  m_LocalScale: {x: 1, y: 1, z: 1}
  m_Children: []
  m_Father: {fileID: 0}
  m_RootOrder: 4
  m_LocalEulerAnglesHint: {x: 50, y: -30, z: 0}
--- !u!4 &2003193307 stripped
Transform:
  m_CorrespondingSourceObject: {fileID: 4906135553402876407, guid: 07dbe512ae874da4ab13aa6f19f358d2,
    type: 3}
  m_PrefabInstance: {fileID: 140971597}
  m_PrefabAsset: {fileID: 0}
--- !u!1 &2141507951
GameObject:
  m_ObjectHideFlags: 0
  m_CorrespondingSourceObject: {fileID: 0}
  m_PrefabInstance: {fileID: 0}
  m_PrefabAsset: {fileID: 0}
  serializedVersion: 6
  m_Component:
  - component: {fileID: 2141507955}
  - component: {fileID: 2141507954}
  - component: {fileID: 2141507953}
  - component: {fileID: 2141507952}
  m_Layer: 0
  m_Name: Plane
  m_TagString: Ground
  m_Icon: {fileID: 0}
  m_NavMeshLayer: 0
  m_StaticEditorFlags: 8
  m_IsActive: 1
--- !u!64 &2141507952
MeshCollider:
  m_ObjectHideFlags: 0
  m_CorrespondingSourceObject: {fileID: 0}
  m_PrefabInstance: {fileID: 0}
  m_PrefabAsset: {fileID: 0}
  m_GameObject: {fileID: 2141507951}
  m_Material: {fileID: 0}
  m_IsTrigger: 0
  m_Enabled: 1
  serializedVersion: 3
  m_Convex: 0
  m_CookingOptions: 14
  m_Mesh: {fileID: 10209, guid: 0000000000000000e000000000000000, type: 0}
--- !u!23 &2141507953
MeshRenderer:
  m_ObjectHideFlags: 0
  m_CorrespondingSourceObject: {fileID: 0}
  m_PrefabInstance: {fileID: 0}
  m_PrefabAsset: {fileID: 0}
  m_GameObject: {fileID: 2141507951}
  m_Enabled: 1
  m_CastShadows: 1
  m_ReceiveShadows: 1
  m_DynamicOccludee: 1
  m_MotionVectors: 1
  m_LightProbeUsage: 1
  m_ReflectionProbeUsage: 1
  m_RenderingLayerMask: 1
  m_RendererPriority: 0
  m_Materials:
  - {fileID: 2100000, guid: b0cf922a444d1b340ac1c088e3da36b2, type: 2}
  m_StaticBatchInfo:
    firstSubMesh: 0
    subMeshCount: 0
  m_StaticBatchRoot: {fileID: 0}
  m_ProbeAnchor: {fileID: 0}
  m_LightProbeVolumeOverride: {fileID: 0}
  m_ScaleInLightmap: 1
  m_PreserveUVs: 0
  m_IgnoreNormalsForChartDetection: 0
  m_ImportantGI: 0
  m_StitchLightmapSeams: 0
  m_SelectedEditorRenderState: 3
  m_MinimumChartSize: 4
  m_AutoUVMaxDistance: 0.5
  m_AutoUVMaxAngle: 89
  m_LightmapParameters: {fileID: 0}
  m_SortingLayerID: 0
  m_SortingLayer: 0
  m_SortingOrder: 0
--- !u!33 &2141507954
MeshFilter:
  m_ObjectHideFlags: 0
  m_CorrespondingSourceObject: {fileID: 0}
  m_PrefabInstance: {fileID: 0}
  m_PrefabAsset: {fileID: 0}
  m_GameObject: {fileID: 2141507951}
  m_Mesh: {fileID: 10209, guid: 0000000000000000e000000000000000, type: 0}
--- !u!4 &2141507955
Transform:
  m_ObjectHideFlags: 0
  m_CorrespondingSourceObject: {fileID: 0}
  m_PrefabInstance: {fileID: 0}
  m_PrefabAsset: {fileID: 0}
  m_GameObject: {fileID: 2141507951}
  m_LocalRotation: {x: 0, y: 0, z: 0, w: 1}
  m_LocalPosition: {x: 0, y: 0, z: 0}
  m_LocalScale: {x: 10, y: 1, z: 10}
  m_Children: []
  m_Father: {fileID: 0}
  m_RootOrder: 5
  m_LocalEulerAnglesHint: {x: 0, y: 0, z: 0}
--- !u!114 &1121521765130237551 stripped
MonoBehaviour:
  m_CorrespondingSourceObject: {fileID: 1121521765130237551, guid: eeddffe18c9799a499b7f10d2d4093f2,
    type: 3}
  m_PrefabInstance: {fileID: 1391881032633730330}
  m_PrefabAsset: {fileID: 0}
  m_GameObject: {fileID: 0}
  m_Enabled: 1
  m_EditorHideFlags: 0
  m_Script: {fileID: 11500000, guid: 3405ff5658a9efc42a37a71a96794261, type: 3}
  m_Name: 
  m_EditorClassIdentifier: 
--- !u!1001 &1391881032633730330
PrefabInstance:
  m_ObjectHideFlags: 0
  serializedVersion: 2
  m_Modification:
    m_TransformParent: {fileID: 0}
    m_Modifications:
    - target: {fileID: 2386533728902566923, guid: eeddffe18c9799a499b7f10d2d4093f2,
        type: 3}
      propertyPath: m_Name
      value: Resource_Manager
      objectReference: {fileID: 0}
    - target: {fileID: 1121521765130237551, guid: eeddffe18c9799a499b7f10d2d4093f2,
        type: 3}
      propertyPath: ErrorCollider
      value: 
      objectReference: {fileID: 0}
    - target: {fileID: 1121521765130237551, guid: eeddffe18c9799a499b7f10d2d4093f2,
        type: 3}
      propertyPath: Woodmaterial.Array.data[0]
      value: 
      objectReference: {fileID: 2100000, guid: c91aade1cfa7b304fa89c0d3303bb757, type: 2}
    - target: {fileID: 4440930511246119513, guid: eeddffe18c9799a499b7f10d2d4093f2,
        type: 3}
      propertyPath: m_LocalPosition.x
      value: 0
      objectReference: {fileID: 0}
    - target: {fileID: 4440930511246119513, guid: eeddffe18c9799a499b7f10d2d4093f2,
        type: 3}
      propertyPath: m_LocalPosition.y
      value: 0
      objectReference: {fileID: 0}
    - target: {fileID: 4440930511246119513, guid: eeddffe18c9799a499b7f10d2d4093f2,
        type: 3}
      propertyPath: m_LocalPosition.z
      value: 0
      objectReference: {fileID: 0}
    - target: {fileID: 4440930511246119513, guid: eeddffe18c9799a499b7f10d2d4093f2,
        type: 3}
      propertyPath: m_LocalRotation.x
      value: 0
      objectReference: {fileID: 0}
    - target: {fileID: 4440930511246119513, guid: eeddffe18c9799a499b7f10d2d4093f2,
        type: 3}
      propertyPath: m_LocalRotation.y
      value: 0
      objectReference: {fileID: 0}
    - target: {fileID: 4440930511246119513, guid: eeddffe18c9799a499b7f10d2d4093f2,
        type: 3}
      propertyPath: m_LocalRotation.z
      value: 0
      objectReference: {fileID: 0}
    - target: {fileID: 4440930511246119513, guid: eeddffe18c9799a499b7f10d2d4093f2,
        type: 3}
      propertyPath: m_LocalRotation.w
      value: 1
      objectReference: {fileID: 0}
    - target: {fileID: 4440930511246119513, guid: eeddffe18c9799a499b7f10d2d4093f2,
        type: 3}
      propertyPath: m_RootOrder
      value: 3
      objectReference: {fileID: 0}
    - target: {fileID: 4440930511246119513, guid: eeddffe18c9799a499b7f10d2d4093f2,
        type: 3}
      propertyPath: m_LocalEulerAnglesHint.x
      value: 0
      objectReference: {fileID: 0}
    - target: {fileID: 4440930511246119513, guid: eeddffe18c9799a499b7f10d2d4093f2,
        type: 3}
      propertyPath: m_LocalEulerAnglesHint.y
      value: 0
      objectReference: {fileID: 0}
    - target: {fileID: 4440930511246119513, guid: eeddffe18c9799a499b7f10d2d4093f2,
        type: 3}
      propertyPath: m_LocalEulerAnglesHint.z
      value: 0
      objectReference: {fileID: 0}
    m_RemovedComponents: []
  m_SourcePrefab: {fileID: 100100000, guid: eeddffe18c9799a499b7f10d2d4093f2, type: 3}
--- !u!1001 &5095837760015664867
PrefabInstance:
  m_ObjectHideFlags: 0
  serializedVersion: 2
  m_Modification:
    m_TransformParent: {fileID: 0}
    m_Modifications:
    - target: {fileID: 5095837760039074746, guid: 4974254e8f094344e899cc9b65178dfa,
        type: 3}
      propertyPath: m_Name
      value: Main Camera
      objectReference: {fileID: 0}
    - target: {fileID: 5095837760039074751, guid: 4974254e8f094344e899cc9b65178dfa,
        type: 3}
      propertyPath: m_LocalPosition.x
      value: 0
      objectReference: {fileID: 0}
    - target: {fileID: 5095837760039074751, guid: 4974254e8f094344e899cc9b65178dfa,
        type: 3}
      propertyPath: m_LocalPosition.y
      value: 5.55
      objectReference: {fileID: 0}
    - target: {fileID: 5095837760039074751, guid: 4974254e8f094344e899cc9b65178dfa,
        type: 3}
      propertyPath: m_LocalPosition.z
      value: -10
      objectReference: {fileID: 0}
    - target: {fileID: 5095837760039074751, guid: 4974254e8f094344e899cc9b65178dfa,
        type: 3}
      propertyPath: m_LocalRotation.x
      value: 0
      objectReference: {fileID: 0}
    - target: {fileID: 5095837760039074751, guid: 4974254e8f094344e899cc9b65178dfa,
        type: 3}
      propertyPath: m_LocalRotation.y
      value: 0
      objectReference: {fileID: 0}
    - target: {fileID: 5095837760039074751, guid: 4974254e8f094344e899cc9b65178dfa,
        type: 3}
      propertyPath: m_LocalRotation.z
      value: 0
      objectReference: {fileID: 0}
    - target: {fileID: 5095837760039074751, guid: 4974254e8f094344e899cc9b65178dfa,
        type: 3}
      propertyPath: m_LocalRotation.w
      value: 1
      objectReference: {fileID: 0}
    - target: {fileID: 5095837760039074751, guid: 4974254e8f094344e899cc9b65178dfa,
        type: 3}
      propertyPath: m_RootOrder
      value: 0
      objectReference: {fileID: 0}
    - target: {fileID: 5095837760039074751, guid: 4974254e8f094344e899cc9b65178dfa,
        type: 3}
      propertyPath: m_LocalEulerAnglesHint.x
      value: 0
      objectReference: {fileID: 0}
    - target: {fileID: 5095837760039074751, guid: 4974254e8f094344e899cc9b65178dfa,
        type: 3}
      propertyPath: m_LocalEulerAnglesHint.y
      value: 0
      objectReference: {fileID: 0}
    - target: {fileID: 5095837760039074751, guid: 4974254e8f094344e899cc9b65178dfa,
        type: 3}
      propertyPath: m_LocalEulerAnglesHint.z
      value: 0
      objectReference: {fileID: 0}
    - target: {fileID: 5095837760039074750, guid: 4974254e8f094344e899cc9b65178dfa,
        type: 3}
      propertyPath: target
      value: 
      objectReference: {fileID: 1374062107}
    - target: {fileID: 5095837760039074750, guid: 4974254e8f094344e899cc9b65178dfa,
        type: 3}
      propertyPath: RotationAncor
      value: 
      objectReference: {fileID: 2003193307}
    - target: {fileID: 5095837760039074750, guid: 4974254e8f094344e899cc9b65178dfa,
        type: 3}
      propertyPath: Player
      value: 
      objectReference: {fileID: 341645069}
    - target: {fileID: 5095837760039074750, guid: 4974254e8f094344e899cc9b65178dfa,
        type: 3}
      propertyPath: pivot
      value: 
      objectReference: {fileID: 2003193307}
    m_RemovedComponents: []
  m_SourcePrefab: {fileID: 100100000, guid: 4974254e8f094344e899cc9b65178dfa, type: 3}
