%YAML 1.1
%TAG !u! tag:unity3d.com,2011:
--- !u!114 &11400000
MonoBehaviour:
  m_ObjectHideFlags: 0
  m_CorrespondingSourceObject: {fileID: 0}
  m_PrefabInstance: {fileID: 0}
  m_PrefabAsset: {fileID: 0}
  m_GameObject: {fileID: 0}
  m_Enabled: 1
  m_EditorHideFlags: 0
  m_Script: {fileID: 11500000, guid: 56fb646921194cd459b61deee0805d58, type: 3}
  m_Name: Fish
  m_EditorClassIdentifier: 
  symbolSprite: {fileID: 21300000, guid: 24a927e7d09fb12418210c54374561af, type: 3}
  word:
  - Fish
  - fish
  pattern: {fileID: 0}
