%YAML 1.1
%TAG !u! tag:unity3d.com,2011:
--- !u!1 &2736905915957237980
GameObject:
  m_ObjectHideFlags: 0
  m_CorrespondingSourceObject: {fileID: 0}
  m_PrefabInstance: {fileID: 0}
  m_PrefabAsset: {fileID: 0}
  serializedVersion: 6
  m_Component:
  - component: {fileID: 2736905915957237982}
  - component: {fileID: 2736905915957237981}
  m_Layer: 0
  m_Name: Game_Logic
  m_TagString: DontDestroy
  m_Icon: {fileID: 0}
  m_NavMeshLayer: 0
  m_StaticEditorFlags: 0
  m_IsActive: 1
--- !u!4 &2736905915957237982
Transform:
  m_ObjectHideFlags: 0
  m_CorrespondingSourceObject: {fileID: 0}
  m_PrefabInstance: {fileID: 0}
  m_PrefabAsset: {fileID: 0}
  m_GameObject: {fileID: 2736905915957237980}
  m_LocalRotation: {x: 0, y: 0, z: 0, w: 1}
  m_LocalPosition: {x: -79.28017, y: -0.5302639, z: 16.3897}
  m_LocalScale: {x: 1, y: 1, z: 1}
  m_Children: []
  m_Father: {fileID: 0}
  m_RootOrder: 0
  m_LocalEulerAnglesHint: {x: 0, y: 0, z: 0}
--- !u!114 &2736905915957237981
MonoBehaviour:
  m_ObjectHideFlags: 0
  m_CorrespondingSourceObject: {fileID: 0}
  m_PrefabInstance: {fileID: 0}
  m_PrefabAsset: {fileID: 0}
  m_GameObject: {fileID: 2736905915957237980}
  m_Enabled: 1
  m_EditorHideFlags: 0
  m_Script: {fileID: 11500000, guid: d5e20eb26e95c9146ae9d83e0bb7672e, type: 3}
  m_Name: 
  m_EditorClassIdentifier: 
  dialogeUiObj: {fileID: 0}
  journalUiObj: {fileID: 0}
  gameLogicObj: {fileID: 0}
  DontDestroyList: []
  gameState: 0
  interfaceState: 0
  gameMode: 0
  PausedMenuActivation: 0
  PauseMenu: {fileID: 0}
  PlayerMovement: 0
