%YAML 1.1
%TAG !u! tag:unity3d.com,2011:
--- !u!114 &-2589641215995452085
MonoBehaviour:
  m_ObjectHideFlags: 11
  m_CorrespondingSourceObject: {fileID: 0}
  m_PrefabInstance: {fileID: 0}
  m_PrefabAsset: {fileID: 0}
  m_GameObject: {fileID: 0}
  m_Enabled: 1
  m_EditorHideFlags: 0
  m_Script: {fileID: 11500000, guid: d0353a89b1f911e48b9e16bdc9f2e058, type: 3}
  m_Name: 
  m_EditorClassIdentifier: 
  version: 1
--- !u!21 &2100000
Material:
  serializedVersion: 6
  m_ObjectHideFlags: 0
  m_CorrespondingSourceObject: {fileID: 0}
  m_PrefabInstance: {fileID: 0}
  m_PrefabAsset: {fileID: 0}
  m_Name: Umbrello_Plant
  m_Shader: {fileID: -6465566751694194690, guid: 66ef3df384f3b5a4ebbf801f15caa92d,
    type: 3}
  m_ShaderKeywords: 
  m_LightmapFlags: 4
  m_EnableInstancingVariants: 1
  m_DoubleSidedGI: 1
  m_CustomRenderQueue: -1
  stringTagMap: {}
  disabledShaderPasses: []
  m_SavedProperties:
    serializedVersion: 3
    m_TexEnvs:
    - Texture2D_AE6B22A4:
        m_Texture: {fileID: 2800000, guid: 4d816e258e756584785dee5ffff9100b, type: 3}
        m_Scale: {x: 1, y: 1}
        m_Offset: {x: 0, y: 0}
    - Texture2D_B2450AE4:
        m_Texture: {fileID: 2800000, guid: c97f158bfffea4143827be5d7dafeaed, type: 3}
        m_Scale: {x: 1, y: 1}
        m_Offset: {x: 0, y: 0}
    - Texture2D_C630952F:
        m_Texture: {fileID: 2800000, guid: 4d816e258e756584785dee5ffff9100b, type: 3}
        m_Scale: {x: 1, y: 1}
        m_Offset: {x: 0, y: 0}
    - _BaseMap:
        m_Texture: {fileID: 0}
        m_Scale: {x: 1, y: 1}
        m_Offset: {x: 0, y: 0}
    - _BumpMap:
        m_Texture: {fileID: 0}
        m_Scale: {x: 1, y: 1}
        m_Offset: {x: 0, y: 0}
    - _EmissionMap:
        m_Texture: {fileID: 0}
        m_Scale: {x: 1, y: 1}
        m_Offset: {x: 0, y: 0}
    - _MainTex:
        m_Texture: {fileID: 0}
        m_Scale: {x: 1, y: 1}
        m_Offset: {x: 0, y: 0}
    - _MetallicGlossMap:
        m_Texture: {fileID: 0}
        m_Scale: {x: 1, y: 1}
        m_Offset: {x: 0, y: 0}
    - _OcclusionMap:
        m_Texture: {fileID: 0}
        m_Scale: {x: 1, y: 1}
        m_Offset: {x: 0, y: 0}
    - _SampleTexture2D_C6F50C_Texture:
        m_Texture: {fileID: 0}
        m_Scale: {x: 1, y: 1}
        m_Offset: {x: 0, y: 0}
    - _SpecGlossMap:
        m_Texture: {fileID: 0}
        m_Scale: {x: 1, y: 1}
        m_Offset: {x: 0, y: 0}
    - _Wiggle_94544659_Texture2DC7664679:
        m_Texture: {fileID: 2800000, guid: c97f158bfffea4143827be5d7dafeaed, type: 3}
        m_Scale: {x: 1, y: 1}
        m_Offset: {x: 0, y: 0}
    m_Floats:
    - Boolean_71CE3D5C: 1
    - Boolean_8C75AC76: 0
    - Vector1_125C92A2: 0
    - Vector1_49002046: 20
    - Vector1_6C295BC1: 0.96
    - Vector1_71B5EDAE: 0
    - Vector1_92751D97: 0
    - Vector1_96333E7E: 50
    - Vector1_9B9FCCE6: 0
    - Vector1_B19E1A8B: 0
    - Vector1_B9DE028D: 0
    - Vector1_BD96E130: 1
    - Vector1_EB3A66A9: 0.95
    - Vector1_F552B5B0: 0
    - Vector1_F6441301: 5
    - _AlphaClip: 0
    - _Blend: 0
    - _BumpScale: 1
    - _Cull: 2
    - _Cutoff: 0.5
    - _DstBlend: 0
    - _EnvironmentReflections: 1
    - _GlossMapScale: 0
    - _Glossiness: 0
    - _GlossyReflections: 0
    - _Metallic: 0
    - _OcclusionStrength: 1
    - _QueueOffset: 0
    - _ReceiveShadows: 1
    - _Smoothness: 0.5
    - _SmoothnessTextureChannel: 0
    - _SpecularHighlights: 1
    - _SrcBlend: 1
    - _Surface: 0
    - _WorkflowMode: 1
    - _ZWrite: 1
    m_Colors:
    - Color_6F90AECF: {r: 0.6792453, g: 0.33001068, b: 0.43236828, a: 0}
    - Color_81B25C65: {r: 0.25872186, g: 0.9622641, b: 0.6812872, a: 0}
    - Color_8EC04744: {r: 0.9622641, g: 0, b: 0.5536872, a: 0}
    - Color_9338D0C8: {r: 0, g: 0, b: 0, a: 0}
    - Color_BFB8DEFC: {r: 0.13536847, g: 0.735849, b: 0.5290474, a: 0}
    - Vector2_987F61B6: {r: 6, g: 0, b: 0, a: 0}
    - _BaseColor: {r: 0.5, g: 0.5, b: 0.5, a: 1}
    - _Color: {r: 0.5, g: 0.5, b: 0.5, a: 1}
    - _EmissionColor: {r: 0, g: 0, b: 0, a: 1}
    - _SpecColor: {r: 0.19999996, g: 0.19999996, b: 0.19999996, a: 1}
