%YAML 1.1
%TAG !u! tag:unity3d.com,2011:
--- !u!114 &11400000
MonoBehaviour:
  m_ObjectHideFlags: 0
  m_CorrespondingSourceObject: {fileID: 0}
  m_PrefabInstance: {fileID: 0}
  m_PrefabAsset: {fileID: 0}
  m_GameObject: {fileID: 0}
  m_Enabled: 1
  m_EditorHideFlags: 0
  m_Script: {fileID: 11500000, guid: 56ff242c8e70cac47b16d38a99c69b67, type: 3}
  m_Name: Give
  m_EditorClassIdentifier: 
  patternSprite: {fileID: 21300000, guid: 21719286acd4f7e4692200df37c25608, type: 3}
  patternSymbol: {fileID: 11400000, guid: 27c666effad844741ad55dfd7894543a, type: 2}
