%YAML 1.1
%TAG !u! tag:unity3d.com,2011:
--- !u!114 &11400000
MonoBehaviour:
  m_ObjectHideFlags: 0
  m_CorrespondingSourceObject: {fileID: 0}
  m_PrefabInstance: {fileID: 0}
  m_PrefabAsset: {fileID: 0}
  m_GameObject: {fileID: 0}
  m_Enabled: 1
  m_EditorHideFlags: 0
  m_Script: {fileID: 11500000, guid: 56ff242c8e70cac47b16d38a99c69b67, type: 3}
  m_Name: Tubeplant
  m_EditorClassIdentifier: 
  patternSprite: {fileID: 21300000, guid: 16d61aa6e57469c45a47eebba0b8c4ff, type: 3}
  patternSymbol: {fileID: 0}
